Name,SpeakerName,SpeakerPortrait,bIsPlayer,bSilentResponses
Sans,Sans,Texture2D'/Game/2DPlatformingKit/Textures/Main/Characters/MainCharacter/GG_dlya_dialogov.GG_dlya_dialogov',TRUE,FALSE
Anna,Anna,Material'/Game/2DPlatformingKit/Textures/Main/Characters/Anna/Dialog/Anna_Spirit_Idle_DIalog_Mat.Anna_Spirit_Idle_DIalog_Mat',FALSE,FALSE
Merchant,Drug Dealer,Texture2D'/Game/2DPlatformingKit/Textures/Hammer.Hammer',FALSE,FALSE
SansCut,Sans,Texture2D'/Game/2DPlatformingKit/Textures/Main/Characters/MainCharacter/GG_dlya_dialogov.GG_dlya_dialogov',TRUE,FALSE
AnnaFull,Anna,Material'/Game/2DPlatformingKit/Textures/Main/Characters/Anna/Dialog/Anna_Idle_DIalog_Mat.Anna_Idle_DIalog_Mat',FALSE,FALSE
